[
    {
            "_id" : "TJS",
            "total" : 4087.71,
            "avarage" : 4087.71
    },
    {
            "_id" : "CUP",
            "total" : 15017.34,
            "avarage" : 5005.78
    },
    {
            "_id" : "XOF",
            "total" : 17882.05,
            "avarage" : 5960.683333333333
    },
    {
            "_id" : "MKD",
            "total" : 3835.05,
            "avarage" : 3835.05
    },
    {
            "_id" : "HNL",
            "total" : 16514.59,
            "avarage" : 5504.863333333334
    },
    {
            "_id" : "XPF",
            "total" : 4759.07,
            "avarage" : 4759.07
    },
    {
            "_id" : "RUB",
            "total" : 119749.15,
            "avarage" : 4989.547916666666
    },
    {
            "_id" : "DOP",
            "total" : 20674.739999999998,
            "avarage" : 5168.6849999999995
    },
    {
            "_id" : "TZS",
            "total" : 7052.370000000001,
            "avarage" : 3526.1850000000004
    },
    {
            "_id" : "ILS",
            "total" : 16295.49,
            "avarage" : 5431.83
    },
    {
            "_id" : "VUV",
            "total" : 6418.27,
            "avarage" : 6418.27
    },
    {
            "_id" : "MXN",
            "total" : 50229,
            "avarage" : 5022.9
    },
    {
            "_id" : "CAD",
            "total" : 58375.6,
            "avarage" : 5306.872727272727
    },
    {
            "_id" : "SEK",
            "total" : 70840.19,
            "avarage" : 5060.013571428572
    },
    {
            "_id" : "CNY",
            "total" : 470700.38,
            "avarage" : 4954.740842105263
    },
    {
            "_id" : "GBP",
            "total" : 6149.19,
            "avarage" : 6149.19
    },
    {
            "_id" : "VEF",
            "total" : 8333.28,
            "avarage" : 4166.64
    },
    {
            "_id" : "THB",
            "total" : 23021.96,
            "avarage" : 4604.392
    },
    {
            "_id" : "GTQ",
            "total" : 5806.3,
            "avarage" : 5806.3
    },
    {
            "_id" : "NPR",
            "total" : 5792.26,
            "avarage" : 5792.26
    },
    {
            "_id" : "PHP",
            "total" : 118606.28,
            "avarage" : 4941.928333333333
    },
    {
            "_id" : "BYR",
            "total" : 5095.79,
            "avarage" : 5095.79
    },
    {
            "_id" : "KYD",
            "total" : 3760.89,
            "avarage" : 3760.89
    },
    {
            "_id" : "MNT",
            "total" : 21715.61,
            "avarage" : 5428.9025
    },
    {
            "_id" : "ZAR",
            "total" : 11790.92,
            "avarage" : 3930.306666666667
    },
    {
            "_id" : "PKR",
            "total" : 18938,
            "avarage" : 4734.5
    },
    {
            "_id" : "MWK",
            "total" : 3574.42,
            "avarage" : 3574.42
    },
    {
            "_id" : "XAF",
            "total" : 14094.66,
            "avarage" : 4698.22
    },
    {
            "_id" : "KRW",
            "total" : 13379.82,
            "avarage" : 6689.91
    },
    {
            "_id" : "MMK",
            "total" : 4629.42,
            "avarage" : 4629.42
    },
    {
            "_id" : "ALL",
            "total" : 3325.48,
            "avarage" : 3325.48
    },
    {
            "_id" : "UZS",
            "total" : 3573.03,
            "avarage" : 3573.03
    },
    {
            "_id" : "RWF",
            "total" : 4632.88,
            "avarage" : 4632.88
    },
    {
            "_id" : "LYD",
            "total" : 8764.99,
            "avarage" : 4382.495
    },
    {
            "_id" : "USD",
            "total" : 80650.7,
            "avarage" : 5040.66875
    },
    {
            "_id" : "VND",
            "total" : 36160.26,
            "avarage" : 4520.0325
    },
    {
            "_id" : "BWP",
            "total" : 4076.29,
            "avarage" : 4076.29
    },
    {
            "_id" : "IQD",
            "total" : 4269.39,
            "avarage" : 4269.39
    },
    {
            "_id" : "NGN",
            "total" : 24946.23,
            "avarage" : 4157.705
    },
    {
            "_id" : "ETB",
            "total" : 5436.11,
            "avarage" : 5436.11
    },
    {
            "_id" : "JPY",
            "total" : 60944.74,
            "avarage" : 5078.7283333333335
    },
    {
            "_id" : "COP",
            "total" : 19746.73,
            "avarage" : 4936.6825
    },
    {
            "_id" : "BOB",
            "total" : 5263.3,
            "avarage" : 5263.3
    },
    {
            "_id" : "ISK",
            "total" : 4316.41,
            "avarage" : 4316.41
    },
    {
            "_id" : "PEN",
            "total" : 23227.35,
            "avarage" : 4645.469999999999
    },
    {
            "_id" : "HRK",
            "total" : 24354.82,
            "avarage" : 4870.964
    },
    {
            "_id" : "IRR",
            "total" : 26504.239999999998,
            "avarage" : 4417.373333333333
    },
    {
            "_id" : "YER",
            "total" : 13712.5,
            "avarage" : 4570.833333333333
    },
    {
            "_id" : "RSD",
            "total" : 4276.56,
            "avarage" : 4276.56
    },
    {
            "_id" : "PLN",
            "total" : 90770.78,
            "avarage" : 5042.821111111111
    },
    {
            "_id" : "EGP",
            "total" : 5579.3,
            "avarage" : 5579.3
    },
    {
            "_id" : "MAD",
            "total" : 3818.85,
            "avarage" : 3818.85
    },
    {
            "_id" : "BGN",
            "total" : 21200.88,
            "avarage" : 5300.22
    },
    {
            "_id" : "CDF",
            "total" : 12228.8,
            "avarage" : 6114.4
    },
    {
            "_id" : "IDR",
            "total" : 323922.59,
            "avarage" : 4907.918030303031
    },
    {
            "_id" : "CZK",
            "total" : 37156.42,
            "avarage" : 4644.5525
    },
    {
            "_id" : "NIO",
            "total" : 9971.28,
            "avarage" : 4985.64
    },
    {
            "_id" : "BRL",
            "total" : 49632.020000000004,
            "avarage" : 4512.001818181819
    },
    {
            "_id" : "SRD",
            "total" : 5286.68,
            "avarage" : 5286.68
    },
    {
            "_id" : "EUR",
            "total" : 245091.47,
            "avarage" : 4901.8294
    },
    {
            "_id" : "AMD",
            "total" : 24609.33,
            "avarage" : 4921.866
    },
    {
            "_id" : "ARS",
            "total" : 23242,
            "avarage" : 4648.4
    },
    {
            "_id" : "NOK",
            "total" : 4773.66,
            "avarage" : 4773.66
    },
    {
            "_id" : "CLP",
            "total" : 21008.95,
            "avarage" : 5252.2375
    },
    {
            "_id" : "PYG",
            "total" : 4874.69,
            "avarage" : 4874.69
    },
    {
            "_id" : "KZT",
            "total" : 3788.95,
            "avarage" : 3788.95
    },
    {
            "_id" : "ZWL",
            "total" : 5792.17,
            "avarage" : 5792.17
    },
    {
            "_id" : "MGA",
            "total" : 14560.99,
            "avarage" : 4853.663333333333
    },
    {
            "_id" : "NZD",
            "total" : 5328.46,
            "avarage" : 5328.46
    },
    {
            "_id" : "MYR",
            "total" : 4781.12,
            "avarage" : 4781.12
    },
    {
            "_id" : "AFN",
            "total" : 16755.49,
            "avarage" : 5585.163333333334
    },
    {
            "_id" : "UAH",
            "total" : 40471.840000000004,
            "avarage" : 5058.9800000000005
    },
    {
            "_id" : "ZMW",
            "total" : 5569.56,
            "avarage" : 5569.56
    }
]